^C:\USERS\LOTTE\HIDRIVE\WISE2021\WAHLMODULE_JADEHS\HSP\LABORAUFGABEN\LABOR6_FUNKTIONSBIBLIOTHEKEN\FUNKTIONSBIBLIOTHEKEN.CPP|C:\USERS\LOTTE\HIDRIVE\WISE2021\WAHLMODULE_JADEHS\HSP\LABORAUFGABEN\LABOR6_FUNKTIONSBIBLIOTHEKEN\MEINEBIB.CPP
C:\USERS\LOTTE\HIDRIVE\WISE2021\WAHLMODULE_JADEHS\HSP\LABORAUFGABEN\LABOR6_FUNKTIONSBIBLIOTHEKEN\DEBUG\VC142.PDB
C:\USERS\LOTTE\HIDRIVE\WISE2021\WAHLMODULE_JADEHS\HSP\LABORAUFGABEN\LABOR6_FUNKTIONSBIBLIOTHEKEN\DEBUG\VC142.IDB
C:\USERS\LOTTE\HIDRIVE\WISE2021\WAHLMODULE_JADEHS\HSP\LABORAUFGABEN\LABOR6_FUNKTIONSBIBLIOTHEKEN\DEBUG\FUNKTIONSBIBLIOTHEKEN.OBJ
^C:\USERS\LOTTE\HIDRIVE\WISE2021\WAHLMODULE_JADEHS\HSP\LABORAUFGABEN\LABOR6_FUNKTIONSBIBLIOTHEKEN\FUNKTIONSBIBLIOTHEKEN.CPP
C:\USERS\LOTTE\HIDRIVE\WISE2021\WAHLMODULE_JADEHS\HSP\LABORAUFGABEN\LABOR6_FUNKTIONSBIBLIOTHEKEN\DEBUG\FUNKTIONSBIBLIOTHEKEN.OBJ
